-0.033158526
0.21828459
0.34413776
0.4409917
0.5281494
0.58934224
0.6461847
0.7195123
0.7459391
0.7904808
0.8492623
0.8621056
0.83334017
0.9356481
0.8879166
0.8309069
0.90411425
0.9157719
0.8935011
0.94514906
0.96206784
0.9742675
0.9426385
0.97438514
1.0024998
0.94595176
0.9675149
1.0188317
0.97186077
1.0209386
0.9898144
1.0394474
1.0764985
1.0841167
0.9726411
0.98964465
1.0218636
1.0731245
1.036229
1.0459124
1.0208468
1.082437
1.1245562
1.1353447
1.0816125
1.0821239
1.1870929
1.0936803
1.1457956
1.1341065
1.0529273
1.0996035
1.1088083
1.1057636
1.1068159
1.1242477
1.1409204
1.2023612
1.1576694
1.1938108
1.0963997
1.114076
1.1062119
1.1245039
1.1559346
1.1184675
1.1238713
1.1456437
1.1546391
1.144031
1.1415944
1.1432586
1.1766881
1.1678593
1.1548812
1.1461921
1.194027
1.1890438
1.244046
1.1031796
1.20728
1.1702092
1.2027651
1.1393697
1.2565838
1.1728055
1.2480487
1.1942749
1.1722754
1.1493887
1.1926322
1.1583205
1.2172017
1.1867504
1.2166831
1.1953368
1.3226622
1.191474
1.2288792
1.1791183
1.209281
1.1959231
1.237447
1.2140031
1.2130836
1.2034087
1.1972349
1.2366161
1.1862633
1.2255214
1.2632397
1.2390488
1.1565707
1.2282203
1.2014636
1.244358
1.2540132
1.2441305
1.2329514
1.2484677
1.2120328
1.2131193
1.1997929
1.2060004
1.1992309
1.2194011
1.271073
1.2051744
1.2244073
1.2016108
1.2644393
1.2628049
1.2619411
1.2958133
1.2491572
1.2118496
1.2743734
1.211435
1.2665372
1.2324635
1.2387302
1.2382631
1.2332232
1.2525563
1.2514299
1.3189728
1.2331549
1.2692424
1.293244
1.2778554
1.2604455
1.2745275
1.24297
1.2611017
1.2667625
1.2743722
1.2333084
1.2509818
1.2040962
1.2606465
1.2847886
1.2992954
1.2855436
1.286341
1.343676
1.2923876
1.1987185
1.218487
1.2564963
1.3225769
1.3529156
1.3159767
1.2611306
1.3161768
1.2808527
1.2572986
1.2921743
1.2366915
1.2668719
1.2517099
1.3276515
1.3441992
1.2875712
1.2972908
1.2551372
1.2586751
1.311897
1.2843457
1.3484383
1.2864709
1.3391659
1.2731277
1.3466289
1.2762821
1.3293918
1.2836496
1.2707903
1.3779118
1.2419106
1.3111866
1.3458065
1.318046
1.2877954
1.2642939
1.3541783
1.2778486
1.3704523
1.2929007
1.3745178
1.2911471
1.313141
1.3114437
1.2817781
1.3441263
1.2626065
1.2970511
1.2905221
1.2496037
1.3180219
1.2631043
1.3410983
1.3144246
1.2901226
1.3499775
1.2460643
1.2988912
1.2828405
1.3361386
1.3337257
1.3331738
1.3580657
1.2908821
1.3644353
1.320833
1.3157747
1.3406856
1.3193728
1.3404496
1.340432
1.376371
1.3001281
1.30396
1.3023895
1.2123431
1.3072498
1.3677213
1.3168079
1.3538196
1.31821
1.3471814
1.2281421
1.3205081
1.3433955
1.2950271
1.3413286
1.3685126
1.3485404
1.3056778
1.3184681
1.3436351
1.3853619
1.3648915
1.3301355
1.3526652
1.3674905
1.2735925
1.2977446
1.3469203
1.3709159
1.4334623
1.277228
1.3886217
1.3578477
1.3211652
1.3491408
1.4412007
1.3703312
1.3496703
1.3289672
1.298733
1.3903855
1.3977431
1.3379971
1.3408254
1.3049277
1.3472178
1.3278167
1.3132865
1.3333578
1.3816103
1.3321102
1.2892213
1.3347081
1.4063874
1.3649204
1.3630373
1.297971
1.2963371
1.3228091
1.3307575
1.3068923
1.3255588
1.3571934
1.3754299
1.3518434
1.3192209
1.3430692
1.3965856
1.3410872
1.3484747
1.3036948
1.3715644
1.3695984
1.4040457
1.4306436
1.3328336
1.4115386
1.2424331
1.3407527
1.4057028
1.3283749
1.3100404
1.3678344
1.2853966
1.3908432
1.376424
1.3523529
1.3332777
1.3889832
1.4188898
1.3388462
1.2674226
1.3783828
1.3453606
1.3892668
1.3480458
1.2814827
1.362112
1.3699328
1.4113932
1.3769624
1.3511108
1.3745028
1.2796013
1.3598964
1.3269702
1.3778919
1.3590993
1.3100606
1.329819
1.3770763
1.3603945
1.3349059
1.3618788
1.3820299
1.3524343
1.3450942
1.340938
1.3368858
1.3253392
1.4102587
1.3329085
1.3077564
1.385597
1.4138609
1.3687012
1.3752818
1.3226221
1.4180847
1.3341063
1.3034712
1.380997
1.358544
1.3153347
1.4325203
1.4143336
1.4338993
1.3294837
1.3682652
1.3918124
1.3944014
1.3395988
1.4054865
1.3786037
1.372277
1.3546692
1.3257508
1.410733
1.3879745
1.3626273
1.386078
1.3969105
1.3934672
1.3640124
1.3644624
1.370325
1.3704507
1.3685195
1.4099474
1.3700998
1.3977945
1.3711712
1.3774565
1.3992176
1.3951294
1.4128734
1.3561537
1.3308836
1.4145285
1.3794776
1.400433
1.3278564
1.3185664
1.3516501
1.3335118
1.391811
1.3048326
1.3404503
1.3589001
1.3946341
1.3493291
1.3195251
1.3110914
1.4341171
1.3747547
1.4228386
1.3190008
1.3637584
1.299651
1.4369584
1.4157457
1.3571695
1.4094378
1.3852497
1.3730365
1.3927976
1.4193407
1.3475096
1.3318851
1.4782803
1.3258314
1.3454729
1.3446393
1.3755392
1.3696756
1.3677561
1.3553116
1.3555381
1.3684133
1.356389
1.4019264
1.3241999
1.38449
1.3576758
1.344057
1.4246103
1.3499223
1.4164138
1.3719639
1.2956436
1.295476
1.409201
1.424445
1.3797845
1.362117
1.3906418
1.3738984
1.4018323
1.3941188
1.3598272
1.3823507
1.3407447
1.3988034
1.3736799
1.340379
1.4221581
1.402474
1.3332913
1.3845013
1.3906494
1.4055231
1.3584396
1.4069812
1.4043602
1.3827296
1.3761064
1.4132106
1.350072
1.4069213
1.3539406
1.3522259
1.3842605
1.375402
1.3743023
1.332511
1.3565514
1.3463888
1.3753333
1.3916715
1.3651549
1.3885701
1.3946524
1.3842869
1.4090745
1.3572918
1.4082524
1.4173367
1.3823206
1.3918722
1.4305935
1.3984051
1.3492382
1.3351823
1.3572491
1.2765131
1.3708367
1.465016
1.3191373
1.3651552
1.4096454
1.4379808
1.3899695
1.3768041
1.3206475
1.3887178
1.4085947
1.3745443
1.3994439
1.360818
1.410566
1.3763214
1.3204365
1.3712713
1.3087561
1.3509356
1.393918
1.3566844
1.361255
1.4154834
1.3805413
1.3609688
1.408828
1.4270341
1.3882734
1.4062182
1.3495412
1.361729
1.4017075
1.392142
1.4329271
1.3652178
1.3999873
1.4201216
1.3833418
1.4493679
1.4394227
1.3718227
1.385691
1.3933606
1.3991996
1.4264221
1.3571596
1.3698769
1.3367765
1.4414129
1.4319763
1.4576489
1.3545223
1.379807
1.4173552
1.3995091
1.4204886
1.344797
1.3110245
1.3250698
1.4218549
1.395175
1.442302
1.3638113
1.3382231
1.3383663
1.3831166
1.3781297
1.4049276
1.3760345
1.3453287
1.4061483
1.3808606
1.3737401
1.3788018
1.3710086
1.3883294
1.3493694
1.3740791
1.3435653
1.4272847
1.3130211
1.3976606
1.3704242
1.3420751
1.3285992
1.4715414
1.3649436
1.3689941
1.429321
1.4186713
1.423647
1.3995249
1.3449509
1.3866402
1.424096
1.3252625
1.4154985
1.3837118
1.3614495
1.3646363
1.3835795
1.3533736
1.4495133
1.3537052
1.346636
1.4233739
1.4086821
1.3786039
1.3342272
1.3971663
1.4141463
1.4289714
1.403191
1.4271945
1.4926974
1.3774154
1.4279408
1.4431298
1.4288812
1.3899869
1.4513057
1.4078609
1.3773267
1.3596481
1.4435371
1.4095567
1.4075073
1.4401767
1.3367884
1.3063129
1.3505048
1.4066617
1.3211361
1.4227074
1.4043456
1.3915758
1.3973746
1.4430348
1.4162207
1.3838123
1.4192278
1.3820258
1.3734502
1.3502702
1.3823173
1.3494118
1.4062631
1.3455628
1.4091961
1.4107717
1.3590273
1.3585644
1.3401629
1.3452942
1.4201131
1.35994
1.3847624
1.3581024
1.3601714
1.3988894
1.3882198
1.4027869
1.3125911
1.3780077
1.4455466
1.3569698
1.3907645
1.3093629
1.425934
1.4204563
1.3922145
1.4052086
1.3928037
1.3953798
1.401967
1.314061
1.35888
1.3411123
1.3510337
1.3639376
1.3750935
1.4250864
1.3297962
1.3795689
1.3892488
1.4206995
1.3768922
1.376213
1.400605
1.3928834
1.438749
1.3889136
1.4418908
1.3183081
1.368281
1.3709666
1.4365793
1.4606091
1.3473071
1.4058007
1.4067976
1.4105765
1.3767388
1.3615158
1.4155606
1.3988006
1.4041306
1.4508407
1.4140724
1.3843806
1.4205831
1.3658928
1.3954637
1.4199122
1.415706
1.3474315
1.3776917
1.3702166
1.4107901
1.3894607
1.4343007
1.4462543
1.428301
1.3672593
1.4654012
1.4102646
1.3498894
1.4684163
1.3888543
1.3631483
1.3860134
1.3947856
1.4152741
1.3445191
1.4274203
1.3867451
1.3663946
1.4668281
1.3392036
1.3857607
1.377306
1.4298424
1.3758106
1.4255016
1.369636
1.4083924
1.448349
1.3676633
1.4476252
1.4409047
1.3725212
1.3874258
1.3336622
1.2716043
1.3800415
1.3918105
1.38682
1.4254491
1.3906728
1.3788542
1.468412
1.3964003
1.3584958
1.3856112
1.3842359
1.3872818
1.3915639
1.3251066
1.380837
1.3893853
1.4277985
1.401292
1.4085807
1.4079893
1.3529667
1.3973776
1.4602281
1.3949449
1.3748893
1.4277639
1.3469363
1.4433937
1.4146234
1.408612
1.3580428
1.3504037
1.4241245
1.3513954
1.3489387
1.4015014
1.3769283
1.3697575
1.438356
1.3629485
1.3624709
1.3473089
1.3475904
1.3771148
1.405929
1.431002
1.3146969
1.4173015
1.3405517
1.41295
1.3924398
1.3941815
1.4205276
1.4070566
1.3633841
1.4014554
1.3865235
1.3710086
1.381624
1.4067196
1.3518552
1.427023
1.4395794
1.3886821
1.4226443
1.3899759
1.403347
1.3656822
1.375729
1.3158683
1.4178736
1.4104781
1.3367442
1.3710772
1.3644371
1.3521526
1.4520601
1.4144627
1.4121203
1.3641411
1.4146831
1.3863279
1.3965695
1.3959771
1.3549803
1.357652
1.379585
1.2657061
1.3343694
1.3423548
1.4356673
1.4484882
1.3307093
1.3175943
1.3470478
1.3496015
1.422544
1.4578488
1.4200028
1.4089947
1.4085388
1.371709
1.3823386
1.3734996
1.3764555
1.392773
1.4206833
1.3640683
1.3479669
1.3747481
1.4171488
1.4225706
1.3785087
1.3732044
1.4674748
1.3875821
1.3671268
1.372121
1.3329703
1.3887737
1.3662043
1.3891568
1.3527168
1.38726
1.4051831
1.3884115
1.400011
1.3897223
1.3971856
1.4251193
1.4291251
1.406327
1.4073771
1.3821573
1.321465
1.4379983
1.3539182
1.4018359
1.4214259
1.3874091
1.3379602
1.3972483
1.30848
1.3714341
1.3439319
1.4402275
1.3798546
1.3646934
1.3650756
1.2962874
1.4510555
1.4664375
1.397582
1.4144562
1.4195402
1.4666262
1.3622828
1.3619224
1.3887804
1.4189337
1.3925333
1.4274228
1.3884513
1.4010968
1.3430228
1.4002099
1.4090517
1.3585421
1.4322842
1.3619521
1.4061519
1.3929434
1.4272957
1.4326206
1.4227927
1.3880837
1.4417498
1.3780274
1.4115367
1.367372
1.4117126
1.3433579
1.4037129
1.3847857
1.3877027
1.4319993
1.411157
1.3858924
1.430371
1.3650358
1.3724617
1.3737293
1.3736577
1.3697278
1.3700341
1.4301323
1.3920418
1.3517756
1.445178
1.4500775
1.4174716
1.3828244
1.4366546
1.438707
1.3794849
1.4258792
1.3815553
1.4386165
1.3907672
1.3750265
1.3936787
1.392935
1.3282789
1.359137
1.3538662
1.370307
1.403488
1.3711071
1.3873241
1.4029684
1.379572
1.4310377
1.372927
1.3340464
1.3960559
1.4169604
1.3827541
1.3881993
1.4616916
1.3883051